@startuml

title __APP's Class Diagram__\n

  package airport.data {
    class AppDataBase_Impl {
    }
  }
  

  package airport.data {
    package airport.data.dao {
      class BaggageDAO_Impl {
      }
    }
  }
  

  package airport.airport {
    class BuildConfig {
    }
  }
  

  package airport.data {
    package airport.data.dao {
      class FlightDAO_Impl {
      }
    }
  }
  

  package airport.data {
    package airport.data.dao {
      class TicketDAO_Impl {
      }
    }
  }
  

  AppDataBase_Impl -up-|> AppDataBase
  AppDataBase_Impl o-- TicketDAO : _ticketDAO
  BaggageDAO_Impl -up-|> BaggageDAO
  FlightDAO_Impl -up-|> FlightDAO
  TicketDAO_Impl -up-|> TicketDAO


right footer


PlantUML diagram generated by SketchIt! (https://bitbucket.org/pmesmeur/sketch.it)
For more information about this tool, please contact philippe.mesmeur@gmail.com
endfooter

@enduml
